timeout 10
default 0

title avg_arl_cdi_all_120_160420a12074
 find --set-root /iso/avg_arl_cdi_all_120_160420a12074.iso
 map /iso/avg_arl_cdi_all_120_160420a12074.iso (0xff)
 map --hook
 chainloader (0xff)

title Hirens.BootCD.15.2 
 find --set-root /iso/Hirens.BootCD.15.2.iso
 map /iso/Hirens.BootCD.15.2.iso (hd32)
 map --hook
 chainloader (hd32)

title TENS 3.0.2 public
 find --set-root --ignore-floppies /iso/TENS-3.0.2_public.iso
 map /iso/TENS-3.0.2_public.iso (hd32)
 map --hook
 root (hd32)
 kernel (hd32)/boot/vmlinuz load_ramdisk=1 ramdisk_blocksize=4096 root=/dev/ram0 ramdisk_size=786432 console=tty1 
 chainloader (hd32) 

title TENS 3.0.2 public deluxe
 find --set-root --ignore-floppies /iso/TENS-3.0.2_public_deluxe.iso
 map /iso/TENS-3.0.2_public_deluxe.iso (hd32)
 map --hook
 root (hd32)
 kernel (hd32)/boot/vmlinuz load_ramdisk=1 ramdisk_blocksize=4096 root=/dev/ram0 ramdisk_size=786432 console=tty1
 chainloader (hd32) 

title Ultimate Boot CD 5.3.9
 find --set-root /iso/ubcd539.iso
 map /iso/ubcd539.iso (hd32)
 map --hook
 chainloader (hd32)

title pclinuxos64 kde5 2020.1015
 map --unhook
 map --unmap=0:0xff
 find --set-root --ignore-floppies /iso/pclinuxos64-kde5-2020.1015.iso
 map --heads=0 --sectors-per-track=0 /iso/pclinuxos64-kde5-2020.1015.iso (0xff)
 map --hook
 root (0xff)
 kernel (0xff)/isolinux/vmlinuz fromusb bootfromiso=/iso/pclinuxos64-kde5-2020.1015.iso livecd=livecd root=/dev/rd/3 acpi=on vga=788 keyb=en vmalloc=256M edd=off
 initrd (0xff)/isolinux/initrd.gz

title pclinuxos64 MATE 2020.10
 map --unhook
 map --unmap=0:0xff
 find --set-root --ignore-floppies /iso/pclinuxos64-MATE-2020.10.iso
 map --heads=0 --sectors-per-track=0 /iso/pclinuxos64-MATE-2020.10.iso (0xff)
 map --hook
 root (0xff)
 kernel (0xff)/isolinux/vmlinuz fromusb bootfromiso=/iso/pclinuxos64-MATE-2020.10.iso livecd=livecd root=/dev/rd/3 acpi=on vga=788 keyb=en vmalloc=256M edd=off
 initrd (0xff)/isolinux/initrd.gz

title pclinuxos64 xfce 2020.10
 map --unhook
 map --unmap=0:0xff
 find --set-root --ignore-floppies /iso/pclinuxos64-xfce-2020.10.iso
 map --heads=0 --sectors-per-track=0 /iso/pclinuxos64-xfce-2020.10.iso (0xff)
 map --hook
 root (0xff)
 kernel (0xff)/isolinux/vmlinuz fromusb bootfromiso=/iso/pclinuxos64-xfce-2020.10.iso livecd=livecd root=/dev/rd/3 acpi=on vga=788 keyb=en vmalloc=256M edd=off
 initrd (0xff)/isolinux/initrd.gz

title Shutdown
 halt

title Reboot
 reboot 
